…
Para abrir ficheros de excel disponemos de diversas funciones en las librerías `readxl` y `openxlsx` entre muchas otras. Aunque la segunda librería tiene más funciones para manipular y escribir ficheros `.xlsx`, la primera dispone de funciones que nos permiten leer también ficheros `.xls`

```r
library(readxl)
#help(package = "readxl") # Informémonos acerca de la librería readxl
#?read_excel # ayuda de la función read_excel
read_excel("data_curs_stat/EP1.xls")
```

```
# A tibble: 4,753 × 12
   q0002_hhid sex   age   mar_1 edu1      phys_hea1                    hea1 dep1  score_lon1 score_sup1 income1 income_inf1
        <dbl> <chr> <chr> <chr> <chr>     <chr>                       <dbl> <chr>      <dbl>      <dbl>   <dbl> <chr>      
 1          1 fem   35-49 Yes   Tertiary  None                         70.5 No             3         12      15 Normal     
 2          2 masc  35-49 Yes   Tertiary  None                         78.9 No             3         12      17 Normal     
 3          3 masc  65-79 Yes   Primary   None                         66.6 No             3         12      15 Normal     
 4          4 masc  50-64 Yes   Primary   1 physical health problem    77.4 No             3         11      18 Normal     
 5          5 fem   50-64 No    Tertiary  None                         52.5 No             3         12      29 Normal     
 6          6 fem   50-64 No    Tertiary  None                         53.7 No             3         13      25 Normal     
 7          7 masc  50-64 Yes   Secondary None                         59.1 No             6         10      12 Good       
 8          8 masc  50-64 Yes   Primary   None                         76.4 No             3         12      14 Normal     
 9          9 fem   50-64 No    Secondary None                         73.7 No             3         11      26 Good       
10         10 fem   80+   No    Primary   2+ physical health problems  28.0 No             6         13      10 Normal     
# … with 4,743 more rows
```
…
